%YAML 1.1
%TAG !u! tag:unity3d.com,2011:
--- !u!29 &1
OcclusionCullingSettings:
  m_ObjectHideFlags: 0
  serializedVersion: 2
  m_OcclusionBakeSettings:
    smallestOccluder: 5
    smallestHole: 0.25
    backfaceThreshold: 100
  m_SceneGUID: 00000000000000000000000000000000
  m_OcclusionCullingData: {fileID: 0}
--- !u!104 &2
RenderSettings:
  m_ObjectHideFlags: 0
  serializedVersion: 9
  m_Fog: 0
  m_FogColor: {r: 0.5, g: 0.5, b: 0.5, a: 1}
  m_FogMode: 3
  m_FogDensity: 0.01
  m_LinearFogStart: 0
  m_LinearFogEnd: 300
  m_AmbientSkyColor: {r: 0.212, g: 0.227, b: 0.259, a: 1}
  m_AmbientEquatorColor: {r: 0.114, g: 0.125, b: 0.133, a: 1}
  m_AmbientGroundColor: {r: 0.047, g: 0.043, b: 0.035, a: 1}
  m_AmbientIntensity: 1
  m_AmbientMode: 3
  m_SubtractiveShadowColor: {r: 0.42, g: 0.478, b: 0.627, a: 1}
  m_SkyboxMaterial: {fileID: 0}
  m_HaloStrength: 0.5
  m_FlareStrength: 1
  m_FlareFadeSpeed: 3
  m_HaloTexture: {fileID: 0}
  m_SpotCookie: {fileID: 10001, guid: 0000000000000000e000000000000000, type: 0}
  m_DefaultReflectionMode: 0
  m_DefaultReflectionResolution: 128
  m_ReflectionBounces: 1
  m_ReflectionIntensity: 1
  m_CustomReflection: {fileID: 0}
  m_Sun: {fileID: 0}
  m_IndirectSpecularColor: {r: 0, g: 0, b: 0, a: 1}
  m_UseRadianceAmbientProbe: 0
--- !u!157 &3
LightmapSettings:
  m_ObjectHideFlags: 0
  serializedVersion: 11
  m_GIWorkflowMode: 1
  m_GISettings:
    serializedVersion: 2
    m_BounceScale: 1
    m_IndirectOutputScale: 1
    m_AlbedoBoost: 1
    m_EnvironmentLightingMode: 0
    m_EnableBakedLightmaps: 0
    m_EnableRealtimeLightmaps: 0
  m_LightmapEditorSettings:
    serializedVersion: 12
    m_Resolution: 2
    m_BakeResolution: 40
    m_AtlasSize: 1024
    m_AO: 0
    m_AOMaxDistance: 1
    m_CompAOExponent: 1
    m_CompAOExponentDirect: 0
    m_ExtractAmbientOcclusion: 0
    m_Padding: 2
    m_LightmapParameters: {fileID: 0}
    m_LightmapsBakeMode: 1
    m_TextureCompression: 1
    m_FinalGather: 0
    m_FinalGatherFiltering: 1
    m_FinalGatherRayCount: 256
    m_ReflectionCompression: 2
    m_MixedBakeMode: 2
    m_BakeBackend: 1
    m_PVRSampling: 1
    m_PVRDirectSampleCount: 32
    m_PVRSampleCount: 512
    m_PVRBounces: 2
    m_PVREnvironmentSampleCount: 256
    m_PVREnvironmentReferencePointCount: 2048
    m_PVRFilteringMode: 1
    m_PVRDenoiserTypeDirect: 1
    m_PVRDenoiserTypeIndirect: 1
    m_PVRDenoiserTypeAO: 1
    m_PVRFilterTypeDirect: 0
    m_PVRFilterTypeIndirect: 0
    m_PVRFilterTypeAO: 0
    m_PVREnvironmentMIS: 1
    m_PVRCulling: 1
    m_PVRFilteringGaussRadiusDirect: 1
    m_PVRFilteringGaussRadiusIndirect: 5
    m_PVRFilteringGaussRadiusAO: 2
    m_PVRFilteringAtrousPositionSigmaDirect: 0.5
    m_PVRFilteringAtrousPositionSigmaIndirect: 2
    m_PVRFilteringAtrousPositionSigmaAO: 1
    m_ExportTrainingData: 0
    m_TrainingDataDestination: TrainingData
    m_LightProbeSampleCountMultiplier: 4
  m_LightingDataAsset: {fileID: 0}
  m_UseShadowmask: 1
--- !u!196 &4
NavMeshSettings:
  serializedVersion: 2
  m_ObjectHideFlags: 0
  m_BuildSettings:
    serializedVersion: 2
    agentTypeID: 0
    agentRadius: 0.5
    agentHeight: 2
    agentSlope: 45
    agentClimb: 0.4
    ledgeDropHeight: 0
    maxJumpAcrossDistance: 0
    minRegionArea: 2
    manualCellSize: 0
    cellSize: 0.16666667
    manualTileSize: 0
    tileSize: 256
    accuratePlacement: 0
    debug:
      m_Flags: 0
  m_NavMeshData: {fileID: 0}
--- !u!1001 &185300868
PrefabInstance:
  m_ObjectHideFlags: 0
  serializedVersion: 2
  m_Modification:
    m_TransformParent: {fileID: 0}
    m_Modifications:
    - target: {fileID: 682786976592239378, guid: 0b5b3070c90879748b7cb72a44d3a838,
        type: 3}
      propertyPath: m_LocalPosition.x
      value: 70.09
      objectReference: {fileID: 0}
    - target: {fileID: 682786976592239378, guid: 0b5b3070c90879748b7cb72a44d3a838,
        type: 3}
      propertyPath: m_LocalPosition.y
      value: -56.64
      objectReference: {fileID: 0}
    - target: {fileID: 682786976592239378, guid: 0b5b3070c90879748b7cb72a44d3a838,
        type: 3}
      propertyPath: m_LocalPosition.z
      value: 0
      objectReference: {fileID: 0}
    - target: {fileID: 682786976592239378, guid: 0b5b3070c90879748b7cb72a44d3a838,
        type: 3}
      propertyPath: m_LocalRotation.x
      value: 0
      objectReference: {fileID: 0}
    - target: {fileID: 682786976592239378, guid: 0b5b3070c90879748b7cb72a44d3a838,
        type: 3}
      propertyPath: m_LocalRotation.y
      value: 0
      objectReference: {fileID: 0}
    - target: {fileID: 682786976592239378, guid: 0b5b3070c90879748b7cb72a44d3a838,
        type: 3}
      propertyPath: m_LocalRotation.z
      value: 0
      objectReference: {fileID: 0}
    - target: {fileID: 682786976592239378, guid: 0b5b3070c90879748b7cb72a44d3a838,
        type: 3}
      propertyPath: m_LocalRotation.w
      value: 1
      objectReference: {fileID: 0}
    - target: {fileID: 682786976592239378, guid: 0b5b3070c90879748b7cb72a44d3a838,
        type: 3}
      propertyPath: m_RootOrder
      value: 9
      objectReference: {fileID: 0}
    - target: {fileID: 682786976592239378, guid: 0b5b3070c90879748b7cb72a44d3a838,
        type: 3}
      propertyPath: m_LocalEulerAnglesHint.x
      value: 0
      objectReference: {fileID: 0}
    - target: {fileID: 682786976592239378, guid: 0b5b3070c90879748b7cb72a44d3a838,
        type: 3}
      propertyPath: m_LocalEulerAnglesHint.y
      value: 0
      objectReference: {fileID: 0}
    - target: {fileID: 682786976592239378, guid: 0b5b3070c90879748b7cb72a44d3a838,
        type: 3}
      propertyPath: m_LocalEulerAnglesHint.z
      value: 0
      objectReference: {fileID: 0}
    - target: {fileID: 682786976592239378, guid: 0b5b3070c90879748b7cb72a44d3a838,
        type: 3}
      propertyPath: m_LocalScale.x
      value: 2.7316213
      objectReference: {fileID: 0}
    - target: {fileID: 682786976592239378, guid: 0b5b3070c90879748b7cb72a44d3a838,
        type: 3}
      propertyPath: m_LocalScale.y
      value: 3.1477404
      objectReference: {fileID: 0}
    - target: {fileID: 682786976592239378, guid: 0b5b3070c90879748b7cb72a44d3a838,
        type: 3}
      propertyPath: m_LocalScale.z
      value: 1.6779
      objectReference: {fileID: 0}
    - target: {fileID: 682786976592239471, guid: 0b5b3070c90879748b7cb72a44d3a838,
        type: 3}
      propertyPath: m_Name
      value: Simple Trap (5)
      objectReference: {fileID: 0}
    m_RemovedComponents: []
  m_SourcePrefab: {fileID: 100100000, guid: 0b5b3070c90879748b7cb72a44d3a838, type: 3}
--- !u!1001 &212883857
PrefabInstance:
  m_ObjectHideFlags: 0
  serializedVersion: 2
  m_Modification:
    m_TransformParent: {fileID: 0}
    m_Modifications:
    - target: {fileID: 7356016798659366284, guid: d58e16495e9aaf84d9e60ddfb1104e08,
        type: 3}
      propertyPath: m_LocalPosition.x
      value: -36.352
      objectReference: {fileID: 0}
    - target: {fileID: 7356016798659366284, guid: d58e16495e9aaf84d9e60ddfb1104e08,
        type: 3}
      propertyPath: m_LocalPosition.y
      value: 15.6
      objectReference: {fileID: 0}
    - target: {fileID: 7356016798659366284, guid: d58e16495e9aaf84d9e60ddfb1104e08,
        type: 3}
      propertyPath: m_LocalPosition.z
      value: 0
      objectReference: {fileID: 0}
    - target: {fileID: 7356016798659366284, guid: d58e16495e9aaf84d9e60ddfb1104e08,
        type: 3}
      propertyPath: m_LocalRotation.x
      value: 0
      objectReference: {fileID: 0}
    - target: {fileID: 7356016798659366284, guid: d58e16495e9aaf84d9e60ddfb1104e08,
        type: 3}
      propertyPath: m_LocalRotation.y
      value: 0
      objectReference: {fileID: 0}
    - target: {fileID: 7356016798659366284, guid: d58e16495e9aaf84d9e60ddfb1104e08,
        type: 3}
      propertyPath: m_LocalRotation.z
      value: 0
      objectReference: {fileID: 0}
    - target: {fileID: 7356016798659366284, guid: d58e16495e9aaf84d9e60ddfb1104e08,
        type: 3}
      propertyPath: m_LocalRotation.w
      value: 1
      objectReference: {fileID: 0}
    - target: {fileID: 7356016798659366284, guid: d58e16495e9aaf84d9e60ddfb1104e08,
        type: 3}
      propertyPath: m_RootOrder
      value: 4
      objectReference: {fileID: 0}
    - target: {fileID: 7356016798659366284, guid: d58e16495e9aaf84d9e60ddfb1104e08,
        type: 3}
      propertyPath: m_LocalEulerAnglesHint.x
      value: 0
      objectReference: {fileID: 0}
    - target: {fileID: 7356016798659366284, guid: d58e16495e9aaf84d9e60ddfb1104e08,
        type: 3}
      propertyPath: m_LocalEulerAnglesHint.y
      value: 0
      objectReference: {fileID: 0}
    - target: {fileID: 7356016798659366284, guid: d58e16495e9aaf84d9e60ddfb1104e08,
        type: 3}
      propertyPath: m_LocalEulerAnglesHint.z
      value: 0
      objectReference: {fileID: 0}
    - target: {fileID: 7356016798659366284, guid: d58e16495e9aaf84d9e60ddfb1104e08,
        type: 3}
      propertyPath: m_LocalScale.x
      value: 142.12228
      objectReference: {fileID: 0}
    - target: {fileID: 7356016798659366284, guid: d58e16495e9aaf84d9e60ddfb1104e08,
        type: 3}
      propertyPath: m_LocalScale.y
      value: 29.303637
      objectReference: {fileID: 0}
    - target: {fileID: 7356016798659366290, guid: d58e16495e9aaf84d9e60ddfb1104e08,
        type: 3}
      propertyPath: m_Name
      value: Floor_wall (7)
      objectReference: {fileID: 0}
    m_RemovedComponents: []
  m_SourcePrefab: {fileID: 100100000, guid: d58e16495e9aaf84d9e60ddfb1104e08, type: 3}
--- !u!1001 &218087815
PrefabInstance:
  m_ObjectHideFlags: 0
  serializedVersion: 2
  m_Modification:
    m_TransformParent: {fileID: 0}
    m_Modifications:
    - target: {fileID: 682786976592239378, guid: 0b5b3070c90879748b7cb72a44d3a838,
        type: 3}
      propertyPath: m_LocalPosition.x
      value: 49.43
      objectReference: {fileID: 0}
    - target: {fileID: 682786976592239378, guid: 0b5b3070c90879748b7cb72a44d3a838,
        type: 3}
      propertyPath: m_LocalPosition.y
      value: -56.88
      objectReference: {fileID: 0}
    - target: {fileID: 682786976592239378, guid: 0b5b3070c90879748b7cb72a44d3a838,
        type: 3}
      propertyPath: m_LocalPosition.z
      value: 0
      objectReference: {fileID: 0}
    - target: {fileID: 682786976592239378, guid: 0b5b3070c90879748b7cb72a44d3a838,
        type: 3}
      propertyPath: m_LocalRotation.x
      value: 0
      objectReference: {fileID: 0}
    - target: {fileID: 682786976592239378, guid: 0b5b3070c90879748b7cb72a44d3a838,
        type: 3}
      propertyPath: m_LocalRotation.y
      value: 0
      objectReference: {fileID: 0}
    - target: {fileID: 682786976592239378, guid: 0b5b3070c90879748b7cb72a44d3a838,
        type: 3}
      propertyPath: m_LocalRotation.z
      value: 0
      objectReference: {fileID: 0}
    - target: {fileID: 682786976592239378, guid: 0b5b3070c90879748b7cb72a44d3a838,
        type: 3}
      propertyPath: m_LocalRotation.w
      value: 1
      objectReference: {fileID: 0}
    - target: {fileID: 682786976592239378, guid: 0b5b3070c90879748b7cb72a44d3a838,
        type: 3}
      propertyPath: m_RootOrder
      value: 0
      objectReference: {fileID: 0}
    - target: {fileID: 682786976592239378, guid: 0b5b3070c90879748b7cb72a44d3a838,
        type: 3}
      propertyPath: m_LocalEulerAnglesHint.x
      value: 0
      objectReference: {fileID: 0}
    - target: {fileID: 682786976592239378, guid: 0b5b3070c90879748b7cb72a44d3a838,
        type: 3}
      propertyPath: m_LocalEulerAnglesHint.y
      value: 0
      objectReference: {fileID: 0}
    - target: {fileID: 682786976592239378, guid: 0b5b3070c90879748b7cb72a44d3a838,
        type: 3}
      propertyPath: m_LocalEulerAnglesHint.z
      value: 0
      objectReference: {fileID: 0}
    - target: {fileID: 682786976592239378, guid: 0b5b3070c90879748b7cb72a44d3a838,
        type: 3}
      propertyPath: m_LocalScale.x
      value: 2.7316213
      objectReference: {fileID: 0}
    - target: {fileID: 682786976592239378, guid: 0b5b3070c90879748b7cb72a44d3a838,
        type: 3}
      propertyPath: m_LocalScale.y
      value: 3.1477404
      objectReference: {fileID: 0}
    - target: {fileID: 682786976592239378, guid: 0b5b3070c90879748b7cb72a44d3a838,
        type: 3}
      propertyPath: m_LocalScale.z
      value: 1.6779
      objectReference: {fileID: 0}
    - target: {fileID: 682786976592239471, guid: 0b5b3070c90879748b7cb72a44d3a838,
        type: 3}
      propertyPath: m_Name
      value: Simple Trap (3)
      objectReference: {fileID: 0}
    m_RemovedComponents: []
  m_SourcePrefab: {fileID: 100100000, guid: 0b5b3070c90879748b7cb72a44d3a838, type: 3}
--- !u!1001 &297058761
PrefabInstance:
  m_ObjectHideFlags: 0
  serializedVersion: 2
  m_Modification:
    m_TransformParent: {fileID: 0}
    m_Modifications:
    - target: {fileID: 3534943656929160337, guid: 817aa13c7682f174688a65c28348d5b6,
        type: 3}
      propertyPath: m_Name
      value: HeadPlayer
      objectReference: {fileID: 0}
    - target: {fileID: 3534943656929160342, guid: 817aa13c7682f174688a65c28348d5b6,
        type: 3}
      propertyPath: m_LocalPosition.x
      value: 2
      objectReference: {fileID: 0}
    - target: {fileID: 3534943656929160342, guid: 817aa13c7682f174688a65c28348d5b6,
        type: 3}
      propertyPath: m_LocalPosition.y
      value: -16.2
      objectReference: {fileID: 0}
    - target: {fileID: 3534943656929160342, guid: 817aa13c7682f174688a65c28348d5b6,
        type: 3}
      propertyPath: m_LocalPosition.z
      value: 0
      objectReference: {fileID: 0}
    - target: {fileID: 3534943656929160342, guid: 817aa13c7682f174688a65c28348d5b6,
        type: 3}
      propertyPath: m_LocalRotation.x
      value: 0
      objectReference: {fileID: 0}
    - target: {fileID: 3534943656929160342, guid: 817aa13c7682f174688a65c28348d5b6,
        type: 3}
      propertyPath: m_LocalRotation.y
      value: 0
      objectReference: {fileID: 0}
    - target: {fileID: 3534943656929160342, guid: 817aa13c7682f174688a65c28348d5b6,
        type: 3}
      propertyPath: m_LocalRotation.z
      value: 0
      objectReference: {fileID: 0}
    - target: {fileID: 3534943656929160342, guid: 817aa13c7682f174688a65c28348d5b6,
        type: 3}
      propertyPath: m_LocalRotation.w
      value: 1
      objectReference: {fileID: 0}
    - target: {fileID: 3534943656929160342, guid: 817aa13c7682f174688a65c28348d5b6,
        type: 3}
      propertyPath: m_RootOrder
      value: 14
      objectReference: {fileID: 0}
    - target: {fileID: 3534943656929160342, guid: 817aa13c7682f174688a65c28348d5b6,
        type: 3}
      propertyPath: m_LocalEulerAnglesHint.x
      value: 0
      objectReference: {fileID: 0}
    - target: {fileID: 3534943656929160342, guid: 817aa13c7682f174688a65c28348d5b6,
        type: 3}
      propertyPath: m_LocalEulerAnglesHint.y
      value: 0
      objectReference: {fileID: 0}
    - target: {fileID: 3534943656929160342, guid: 817aa13c7682f174688a65c28348d5b6,
        type: 3}
      propertyPath: m_LocalEulerAnglesHint.z
      value: 0
      objectReference: {fileID: 0}
    - target: {fileID: 4669573574327260530, guid: 817aa13c7682f174688a65c28348d5b6,
        type: 3}
      propertyPath: m_IsActive
      value: 0
      objectReference: {fileID: 0}
    m_RemovedComponents: []
  m_SourcePrefab: {fileID: 100100000, guid: 817aa13c7682f174688a65c28348d5b6, type: 3}
--- !u!1001 &497838928
PrefabInstance:
  m_ObjectHideFlags: 0
  serializedVersion: 2
  m_Modification:
    m_TransformParent: {fileID: 0}
    m_Modifications:
    - target: {fileID: 7356016798659366284, guid: d58e16495e9aaf84d9e60ddfb1104e08,
        type: 3}
      propertyPath: m_LocalPosition.x
      value: -25.33
      objectReference: {fileID: 0}
    - target: {fileID: 7356016798659366284, guid: d58e16495e9aaf84d9e60ddfb1104e08,
        type: 3}
      propertyPath: m_LocalPosition.y
      value: -31.73
      objectReference: {fileID: 0}
    - target: {fileID: 7356016798659366284, guid: d58e16495e9aaf84d9e60ddfb1104e08,
        type: 3}
      propertyPath: m_LocalPosition.z
      value: 0
      objectReference: {fileID: 0}
    - target: {fileID: 7356016798659366284, guid: d58e16495e9aaf84d9e60ddfb1104e08,
        type: 3}
      propertyPath: m_LocalRotation.x
      value: 0
      objectReference: {fileID: 0}
    - target: {fileID: 7356016798659366284, guid: d58e16495e9aaf84d9e60ddfb1104e08,
        type: 3}
      propertyPath: m_LocalRotation.y
      value: 0
      objectReference: {fileID: 0}
    - target: {fileID: 7356016798659366284, guid: d58e16495e9aaf84d9e60ddfb1104e08,
        type: 3}
      propertyPath: m_LocalRotation.z
      value: 0
      objectReference: {fileID: 0}
    - target: {fileID: 7356016798659366284, guid: d58e16495e9aaf84d9e60ddfb1104e08,
        type: 3}
      propertyPath: m_LocalRotation.w
      value: 1
      objectReference: {fileID: 0}
    - target: {fileID: 7356016798659366284, guid: d58e16495e9aaf84d9e60ddfb1104e08,
        type: 3}
      propertyPath: m_RootOrder
      value: 3
      objectReference: {fileID: 0}
    - target: {fileID: 7356016798659366284, guid: d58e16495e9aaf84d9e60ddfb1104e08,
        type: 3}
      propertyPath: m_LocalEulerAnglesHint.x
      value: 0
      objectReference: {fileID: 0}
    - target: {fileID: 7356016798659366284, guid: d58e16495e9aaf84d9e60ddfb1104e08,
        type: 3}
      propertyPath: m_LocalEulerAnglesHint.y
      value: 0
      objectReference: {fileID: 0}
    - target: {fileID: 7356016798659366284, guid: d58e16495e9aaf84d9e60ddfb1104e08,
        type: 3}
      propertyPath: m_LocalEulerAnglesHint.z
      value: 0
      objectReference: {fileID: 0}
    - target: {fileID: 7356016798659366284, guid: d58e16495e9aaf84d9e60ddfb1104e08,
        type: 3}
      propertyPath: m_LocalScale.x
      value: 35.644268
      objectReference: {fileID: 0}
    - target: {fileID: 7356016798659366284, guid: d58e16495e9aaf84d9e60ddfb1104e08,
        type: 3}
      propertyPath: m_LocalScale.y
      value: 65.5581
      objectReference: {fileID: 0}
    - target: {fileID: 7356016798659366290, guid: d58e16495e9aaf84d9e60ddfb1104e08,
        type: 3}
      propertyPath: m_Name
      value: Floor_wall (8)
      objectReference: {fileID: 0}
    m_RemovedComponents: []
  m_SourcePrefab: {fileID: 100100000, guid: d58e16495e9aaf84d9e60ddfb1104e08, type: 3}
--- !u!1001 &521885179
PrefabInstance:
  m_ObjectHideFlags: 0
  serializedVersion: 2
  m_Modification:
    m_TransformParent: {fileID: 0}
    m_Modifications:
    - target: {fileID: 8685617610598171557, guid: 35c677f02732f12418c97ba142cbd96a,
        type: 3}
      propertyPath: m_LocalPosition.x
      value: 131.19
      objectReference: {fileID: 0}
    - target: {fileID: 8685617610598171557, guid: 35c677f02732f12418c97ba142cbd96a,
        type: 3}
      propertyPath: m_LocalPosition.y
      value: -57.12
      objectReference: {fileID: 0}
    - target: {fileID: 8685617610598171557, guid: 35c677f02732f12418c97ba142cbd96a,
        type: 3}
      propertyPath: m_LocalPosition.z
      value: 0
      objectReference: {fileID: 0}
    - target: {fileID: 8685617610598171557, guid: 35c677f02732f12418c97ba142cbd96a,
        type: 3}
      propertyPath: m_LocalRotation.x
      value: 0
      objectReference: {fileID: 0}
    - target: {fileID: 8685617610598171557, guid: 35c677f02732f12418c97ba142cbd96a,
        type: 3}
      propertyPath: m_LocalRotation.y
      value: 0
      objectReference: {fileID: 0}
    - target: {fileID: 8685617610598171557, guid: 35c677f02732f12418c97ba142cbd96a,
        type: 3}
      propertyPath: m_LocalRotation.z
      value: 0
      objectReference: {fileID: 0}
    - target: {fileID: 8685617610598171557, guid: 35c677f02732f12418c97ba142cbd96a,
        type: 3}
      propertyPath: m_LocalRotation.w
      value: 1
      objectReference: {fileID: 0}
    - target: {fileID: 8685617610598171557, guid: 35c677f02732f12418c97ba142cbd96a,
        type: 3}
      propertyPath: m_RootOrder
      value: 2
      objectReference: {fileID: 0}
    - target: {fileID: 8685617610598171557, guid: 35c677f02732f12418c97ba142cbd96a,
        type: 3}
      propertyPath: m_LocalEulerAnglesHint.x
      value: 0
      objectReference: {fileID: 0}
    - target: {fileID: 8685617610598171557, guid: 35c677f02732f12418c97ba142cbd96a,
        type: 3}
      propertyPath: m_LocalEulerAnglesHint.y
      value: 0
      objectReference: {fileID: 0}
    - target: {fileID: 8685617610598171557, guid: 35c677f02732f12418c97ba142cbd96a,
        type: 3}
      propertyPath: m_LocalEulerAnglesHint.z
      value: 0
      objectReference: {fileID: 0}
    - target: {fileID: 8685617610598171558, guid: 35c677f02732f12418c97ba142cbd96a,
        type: 3}
      propertyPath: m_Name
      value: Finish
      objectReference: {fileID: 0}
    - target: {fileID: 8685617610598171579, guid: 35c677f02732f12418c97ba142cbd96a,
        type: 3}
      propertyPath: SceneName
      value: Scene 3
      objectReference: {fileID: 0}
    - target: {fileID: 8685617610598171579, guid: 35c677f02732f12418c97ba142cbd96a,
        type: 3}
      propertyPath: UnlockLevel
      value: 3
      objectReference: {fileID: 0}
    m_RemovedComponents: []
  m_SourcePrefab: {fileID: 100100000, guid: 35c677f02732f12418c97ba142cbd96a, type: 3}
--- !u!1001 &666977171
PrefabInstance:
  m_ObjectHideFlags: 0
  serializedVersion: 2
  m_Modification:
    m_TransformParent: {fileID: 0}
    m_Modifications:
    - target: {fileID: 682786976592239378, guid: 0b5b3070c90879748b7cb72a44d3a838,
        type: 3}
      propertyPath: m_LocalPosition.x
      value: 31.51
      objectReference: {fileID: 0}
    - target: {fileID: 682786976592239378, guid: 0b5b3070c90879748b7cb72a44d3a838,
        type: 3}
      propertyPath: m_LocalPosition.y
      value: -60.77
      objectReference: {fileID: 0}
    - target: {fileID: 682786976592239378, guid: 0b5b3070c90879748b7cb72a44d3a838,
        type: 3}
      propertyPath: m_LocalPosition.z
      value: 0
      objectReference: {fileID: 0}
    - target: {fileID: 682786976592239378, guid: 0b5b3070c90879748b7cb72a44d3a838,
        type: 3}
      propertyPath: m_LocalRotation.x
      value: 0
      objectReference: {fileID: 0}
    - target: {fileID: 682786976592239378, guid: 0b5b3070c90879748b7cb72a44d3a838,
        type: 3}
      propertyPath: m_LocalRotation.y
      value: 0
      objectReference: {fileID: 0}
    - target: {fileID: 682786976592239378, guid: 0b5b3070c90879748b7cb72a44d3a838,
        type: 3}
      propertyPath: m_LocalRotation.z
      value: 0
      objectReference: {fileID: 0}
    - target: {fileID: 682786976592239378, guid: 0b5b3070c90879748b7cb72a44d3a838,
        type: 3}
      propertyPath: m_LocalRotation.w
      value: 1
      objectReference: {fileID: 0}
    - target: {fileID: 682786976592239378, guid: 0b5b3070c90879748b7cb72a44d3a838,
        type: 3}
      propertyPath: m_RootOrder
      value: 11
      objectReference: {fileID: 0}
    - target: {fileID: 682786976592239378, guid: 0b5b3070c90879748b7cb72a44d3a838,
        type: 3}
      propertyPath: m_LocalEulerAnglesHint.x
      value: 0
      objectReference: {fileID: 0}
    - target: {fileID: 682786976592239378, guid: 0b5b3070c90879748b7cb72a44d3a838,
        type: 3}
      propertyPath: m_LocalEulerAnglesHint.y
      value: 0
      objectReference: {fileID: 0}
    - target: {fileID: 682786976592239378, guid: 0b5b3070c90879748b7cb72a44d3a838,
        type: 3}
      propertyPath: m_LocalEulerAnglesHint.z
      value: 0
      objectReference: {fileID: 0}
    - target: {fileID: 682786976592239378, guid: 0b5b3070c90879748b7cb72a44d3a838,
        type: 3}
      propertyPath: m_LocalScale.x
      value: 4.3228283
      objectReference: {fileID: 0}
    - target: {fileID: 682786976592239378, guid: 0b5b3070c90879748b7cb72a44d3a838,
        type: 3}
      propertyPath: m_LocalScale.y
      value: 4.981343
      objectReference: {fileID: 0}
    - target: {fileID: 682786976592239378, guid: 0b5b3070c90879748b7cb72a44d3a838,
        type: 3}
      propertyPath: m_LocalScale.z
      value: 2.6553
      objectReference: {fileID: 0}
    - target: {fileID: 682786976592239471, guid: 0b5b3070c90879748b7cb72a44d3a838,
        type: 3}
      propertyPath: m_Name
      value: Simple Trap (2)
      objectReference: {fileID: 0}
    m_RemovedComponents: []
  m_SourcePrefab: {fileID: 100100000, guid: 0b5b3070c90879748b7cb72a44d3a838, type: 3}
--- !u!1001 &686069711
PrefabInstance:
  m_ObjectHideFlags: 0
  serializedVersion: 2
  m_Modification:
    m_TransformParent: {fileID: 0}
    m_Modifications:
    - target: {fileID: 2001455959518673033, guid: 4665d6d0a0ce6f740b2d04d7b172ff2b,
        type: 3}
      propertyPath: m_LocalPosition.x
      value: -4.02956
      objectReference: {fileID: 0}
    - target: {fileID: 2001455959518673033, guid: 4665d6d0a0ce6f740b2d04d7b172ff2b,
        type: 3}
      propertyPath: m_LocalPosition.y
      value: -16.415009
      objectReference: {fileID: 0}
    - target: {fileID: 2001455959518673033, guid: 4665d6d0a0ce6f740b2d04d7b172ff2b,
        type: 3}
      propertyPath: m_LocalPosition.z
      value: 0
      objectReference: {fileID: 0}
    - target: {fileID: 2001455959518673033, guid: 4665d6d0a0ce6f740b2d04d7b172ff2b,
        type: 3}
      propertyPath: m_LocalRotation.x
      value: 0
      objectReference: {fileID: 0}
    - target: {fileID: 2001455959518673033, guid: 4665d6d0a0ce6f740b2d04d7b172ff2b,
        type: 3}
      propertyPath: m_LocalRotation.y
      value: 0
      objectReference: {fileID: 0}
    - target: {fileID: 2001455959518673033, guid: 4665d6d0a0ce6f740b2d04d7b172ff2b,
        type: 3}
      propertyPath: m_LocalRotation.z
      value: 0
      objectReference: {fileID: 0}
    - target: {fileID: 2001455959518673033, guid: 4665d6d0a0ce6f740b2d04d7b172ff2b,
        type: 3}
      propertyPath: m_LocalRotation.w
      value: 1
      objectReference: {fileID: 0}
    - target: {fileID: 2001455959518673033, guid: 4665d6d0a0ce6f740b2d04d7b172ff2b,
        type: 3}
      propertyPath: m_RootOrder
      value: 16
      objectReference: {fileID: 0}
    - target: {fileID: 2001455959518673033, guid: 4665d6d0a0ce6f740b2d04d7b172ff2b,
        type: 3}
      propertyPath: m_LocalEulerAnglesHint.x
      value: 0
      objectReference: {fileID: 0}
    - target: {fileID: 2001455959518673033, guid: 4665d6d0a0ce6f740b2d04d7b172ff2b,
        type: 3}
      propertyPath: m_LocalEulerAnglesHint.y
      value: 0
      objectReference: {fileID: 0}
    - target: {fileID: 2001455959518673033, guid: 4665d6d0a0ce6f740b2d04d7b172ff2b,
        type: 3}
      propertyPath: m_LocalEulerAnglesHint.z
      value: 0
      objectReference: {fileID: 0}
    - target: {fileID: 2001455959518673034, guid: 4665d6d0a0ce6f740b2d04d7b172ff2b,
        type: 3}
      propertyPath: m_Name
      value: Spawner
      objectReference: {fileID: 0}
    m_RemovedComponents: []
  m_SourcePrefab: {fileID: 100100000, guid: 4665d6d0a0ce6f740b2d04d7b172ff2b, type: 3}
--- !u!1001 &776384189
PrefabInstance:
  m_ObjectHideFlags: 0
  serializedVersion: 2
  m_Modification:
    m_TransformParent: {fileID: 0}
    m_Modifications:
    - target: {fileID: 7356016798659366284, guid: d58e16495e9aaf84d9e60ddfb1104e08,
        type: 3}
      propertyPath: m_LocalPosition.x
      value: 157.05
      objectReference: {fileID: 0}
    - target: {fileID: 7356016798659366284, guid: d58e16495e9aaf84d9e60ddfb1104e08,
        type: 3}
      propertyPath: m_LocalPosition.y
      value: -41.034
      objectReference: {fileID: 0}
    - target: {fileID: 7356016798659366284, guid: d58e16495e9aaf84d9e60ddfb1104e08,
        type: 3}
      propertyPath: m_LocalPosition.z
      value: 0
      objectReference: {fileID: 0}
    - target: {fileID: 7356016798659366284, guid: d58e16495e9aaf84d9e60ddfb1104e08,
        type: 3}
      propertyPath: m_LocalRotation.x
      value: 0
      objectReference: {fileID: 0}
    - target: {fileID: 7356016798659366284, guid: d58e16495e9aaf84d9e60ddfb1104e08,
        type: 3}
      propertyPath: m_LocalRotation.y
      value: 0
      objectReference: {fileID: 0}
    - target: {fileID: 7356016798659366284, guid: d58e16495e9aaf84d9e60ddfb1104e08,
        type: 3}
      propertyPath: m_LocalRotation.z
      value: 0
      objectReference: {fileID: 0}
    - target: {fileID: 7356016798659366284, guid: d58e16495e9aaf84d9e60ddfb1104e08,
        type: 3}
      propertyPath: m_LocalRotation.w
      value: 1
      objectReference: {fileID: 0}
    - target: {fileID: 7356016798659366284, guid: d58e16495e9aaf84d9e60ddfb1104e08,
        type: 3}
      propertyPath: m_RootOrder
      value: 21
      objectReference: {fileID: 0}
    - target: {fileID: 7356016798659366284, guid: d58e16495e9aaf84d9e60ddfb1104e08,
        type: 3}
      propertyPath: m_LocalEulerAnglesHint.x
      value: 0
      objectReference: {fileID: 0}
    - target: {fileID: 7356016798659366284, guid: d58e16495e9aaf84d9e60ddfb1104e08,
        type: 3}
      propertyPath: m_LocalEulerAnglesHint.y
      value: 0
      objectReference: {fileID: 0}
    - target: {fileID: 7356016798659366284, guid: d58e16495e9aaf84d9e60ddfb1104e08,
        type: 3}
      propertyPath: m_LocalEulerAnglesHint.z
      value: 0
      objectReference: {fileID: 0}
    - target: {fileID: 7356016798659366284, guid: d58e16495e9aaf84d9e60ddfb1104e08,
        type: 3}
      propertyPath: m_LocalScale.x
      value: 35.69054
      objectReference: {fileID: 0}
    - target: {fileID: 7356016798659366284, guid: d58e16495e9aaf84d9e60ddfb1104e08,
        type: 3}
      propertyPath: m_LocalScale.y
      value: 47.24469
      objectReference: {fileID: 0}
    - target: {fileID: 7356016798659366290, guid: d58e16495e9aaf84d9e60ddfb1104e08,
        type: 3}
      propertyPath: m_Name
      value: Floor_wall (5)
      objectReference: {fileID: 0}
    m_RemovedComponents: []
  m_SourcePrefab: {fileID: 100100000, guid: d58e16495e9aaf84d9e60ddfb1104e08, type: 3}
--- !u!1001 &1073223888
PrefabInstance:
  m_ObjectHideFlags: 0
  serializedVersion: 2
  m_Modification:
    m_TransformParent: {fileID: 0}
    m_Modifications:
    - target: {fileID: 682786976592239378, guid: 0b5b3070c90879748b7cb72a44d3a838,
        type: 3}
      propertyPath: m_LocalPosition.x
      value: 14.65
      objectReference: {fileID: 0}
    - target: {fileID: 682786976592239378, guid: 0b5b3070c90879748b7cb72a44d3a838,
        type: 3}
      propertyPath: m_LocalPosition.y
      value: -60.77
      objectReference: {fileID: 0}
    - target: {fileID: 682786976592239378, guid: 0b5b3070c90879748b7cb72a44d3a838,
        type: 3}
      propertyPath: m_LocalPosition.z
      value: 0
      objectReference: {fileID: 0}
    - target: {fileID: 682786976592239378, guid: 0b5b3070c90879748b7cb72a44d3a838,
        type: 3}
      propertyPath: m_LocalRotation.x
      value: 0
      objectReference: {fileID: 0}
    - target: {fileID: 682786976592239378, guid: 0b5b3070c90879748b7cb72a44d3a838,
        type: 3}
      propertyPath: m_LocalRotation.y
      value: 0
      objectReference: {fileID: 0}
    - target: {fileID: 682786976592239378, guid: 0b5b3070c90879748b7cb72a44d3a838,
        type: 3}
      propertyPath: m_LocalRotation.z
      value: 0
      objectReference: {fileID: 0}
    - target: {fileID: 682786976592239378, guid: 0b5b3070c90879748b7cb72a44d3a838,
        type: 3}
      propertyPath: m_LocalRotation.w
      value: 1
      objectReference: {fileID: 0}
    - target: {fileID: 682786976592239378, guid: 0b5b3070c90879748b7cb72a44d3a838,
        type: 3}
      propertyPath: m_RootOrder
      value: 13
      objectReference: {fileID: 0}
    - target: {fileID: 682786976592239378, guid: 0b5b3070c90879748b7cb72a44d3a838,
        type: 3}
      propertyPath: m_LocalEulerAnglesHint.x
      value: 0
      objectReference: {fileID: 0}
    - target: {fileID: 682786976592239378, guid: 0b5b3070c90879748b7cb72a44d3a838,
        type: 3}
      propertyPath: m_LocalEulerAnglesHint.y
      value: 0
      objectReference: {fileID: 0}
    - target: {fileID: 682786976592239378, guid: 0b5b3070c90879748b7cb72a44d3a838,
        type: 3}
      propertyPath: m_LocalEulerAnglesHint.z
      value: 0
      objectReference: {fileID: 0}
    - target: {fileID: 682786976592239378, guid: 0b5b3070c90879748b7cb72a44d3a838,
        type: 3}
      propertyPath: m_LocalScale.x
      value: 4.3228283
      objectReference: {fileID: 0}
    - target: {fileID: 682786976592239378, guid: 0b5b3070c90879748b7cb72a44d3a838,
        type: 3}
      propertyPath: m_LocalScale.y
      value: 4.981343
      objectReference: {fileID: 0}
    - target: {fileID: 682786976592239378, guid: 0b5b3070c90879748b7cb72a44d3a838,
        type: 3}
      propertyPath: m_LocalScale.z
      value: 2.6553
      objectReference: {fileID: 0}
    - target: {fileID: 682786976592239471, guid: 0b5b3070c90879748b7cb72a44d3a838,
        type: 3}
      propertyPath: m_Name
      value: Simple Trap
      objectReference: {fileID: 0}
    m_RemovedComponents: []
  m_SourcePrefab: {fileID: 100100000, guid: 0b5b3070c90879748b7cb72a44d3a838, type: 3}
--- !u!1001 &1098059493
PrefabInstance:
  m_ObjectHideFlags: 0
  serializedVersion: 2
  m_Modification:
    m_TransformParent: {fileID: 0}
    m_Modifications:
    - target: {fileID: 7356016798659366284, guid: d58e16495e9aaf84d9e60ddfb1104e08,
        type: 3}
      propertyPath: m_LocalPosition.x
      value: 69.292
      objectReference: {fileID: 0}
    - target: {fileID: 7356016798659366284, guid: d58e16495e9aaf84d9e60ddfb1104e08,
        type: 3}
      propertyPath: m_LocalPosition.y
      value: -32.495
      objectReference: {fileID: 0}
    - target: {fileID: 7356016798659366284, guid: d58e16495e9aaf84d9e60ddfb1104e08,
        type: 3}
      propertyPath: m_LocalPosition.z
      value: 0
      objectReference: {fileID: 0}
    - target: {fileID: 7356016798659366284, guid: d58e16495e9aaf84d9e60ddfb1104e08,
        type: 3}
      propertyPath: m_LocalRotation.x
      value: 0
      objectReference: {fileID: 0}
    - target: {fileID: 7356016798659366284, guid: d58e16495e9aaf84d9e60ddfb1104e08,
        type: 3}
      propertyPath: m_LocalRotation.y
      value: 0
      objectReference: {fileID: 0}
    - target: {fileID: 7356016798659366284, guid: d58e16495e9aaf84d9e60ddfb1104e08,
        type: 3}
      propertyPath: m_LocalRotation.z
      value: 0
      objectReference: {fileID: 0}
    - target: {fileID: 7356016798659366284, guid: d58e16495e9aaf84d9e60ddfb1104e08,
        type: 3}
      propertyPath: m_LocalRotation.w
      value: 1
      objectReference: {fileID: 0}
    - target: {fileID: 7356016798659366284, guid: d58e16495e9aaf84d9e60ddfb1104e08,
        type: 3}
      propertyPath: m_RootOrder
      value: 18
      objectReference: {fileID: 0}
    - target: {fileID: 7356016798659366284, guid: d58e16495e9aaf84d9e60ddfb1104e08,
        type: 3}
      propertyPath: m_LocalEulerAnglesHint.x
      value: 0
      objectReference: {fileID: 0}
    - target: {fileID: 7356016798659366284, guid: d58e16495e9aaf84d9e60ddfb1104e08,
        type: 3}
      propertyPath: m_LocalEulerAnglesHint.y
      value: 0
      objectReference: {fileID: 0}
    - target: {fileID: 7356016798659366284, guid: d58e16495e9aaf84d9e60ddfb1104e08,
        type: 3}
      propertyPath: m_LocalEulerAnglesHint.z
      value: 0
      objectReference: {fileID: 0}
    - target: {fileID: 7356016798659366284, guid: d58e16495e9aaf84d9e60ddfb1104e08,
        type: 3}
      propertyPath: m_LocalScale.x
      value: 69.53339
      objectReference: {fileID: 0}
    - target: {fileID: 7356016798659366284, guid: d58e16495e9aaf84d9e60ddfb1104e08,
        type: 3}
      propertyPath: m_LocalScale.y
      value: 29.303637
      objectReference: {fileID: 0}
    - target: {fileID: 7356016798659366290, guid: d58e16495e9aaf84d9e60ddfb1104e08,
        type: 3}
      propertyPath: m_Name
      value: Floor_wall (2)
      objectReference: {fileID: 0}
    m_RemovedComponents: []
  m_SourcePrefab: {fileID: 100100000, guid: d58e16495e9aaf84d9e60ddfb1104e08, type: 3}
--- !u!1001 &1129382852
PrefabInstance:
  m_ObjectHideFlags: 0
  serializedVersion: 2
  m_Modification:
    m_TransformParent: {fileID: 0}
    m_Modifications:
    - target: {fileID: 7356016798659366284, guid: d58e16495e9aaf84d9e60ddfb1104e08,
        type: 3}
      propertyPath: m_LocalPosition.x
      value: 121.86
      objectReference: {fileID: 0}
    - target: {fileID: 7356016798659366284, guid: d58e16495e9aaf84d9e60ddfb1104e08,
        type: 3}
      propertyPath: m_LocalPosition.y
      value: -30.215
      objectReference: {fileID: 0}
    - target: {fileID: 7356016798659366284, guid: d58e16495e9aaf84d9e60ddfb1104e08,
        type: 3}
      propertyPath: m_LocalPosition.z
      value: 0
      objectReference: {fileID: 0}
    - target: {fileID: 7356016798659366284, guid: d58e16495e9aaf84d9e60ddfb1104e08,
        type: 3}
      propertyPath: m_LocalRotation.x
      value: 0
      objectReference: {fileID: 0}
    - target: {fileID: 7356016798659366284, guid: d58e16495e9aaf84d9e60ddfb1104e08,
        type: 3}
      propertyPath: m_LocalRotation.y
      value: 0
      objectReference: {fileID: 0}
    - target: {fileID: 7356016798659366284, guid: d58e16495e9aaf84d9e60ddfb1104e08,
        type: 3}
      propertyPath: m_LocalRotation.z
      value: 0
      objectReference: {fileID: 0}
    - target: {fileID: 7356016798659366284, guid: d58e16495e9aaf84d9e60ddfb1104e08,
        type: 3}
      propertyPath: m_LocalRotation.w
      value: 1
      objectReference: {fileID: 0}
    - target: {fileID: 7356016798659366284, guid: d58e16495e9aaf84d9e60ddfb1104e08,
        type: 3}
      propertyPath: m_RootOrder
      value: 20
      objectReference: {fileID: 0}
    - target: {fileID: 7356016798659366284, guid: d58e16495e9aaf84d9e60ddfb1104e08,
        type: 3}
      propertyPath: m_LocalEulerAnglesHint.x
      value: 0
      objectReference: {fileID: 0}
    - target: {fileID: 7356016798659366284, guid: d58e16495e9aaf84d9e60ddfb1104e08,
        type: 3}
      propertyPath: m_LocalEulerAnglesHint.y
      value: 0
      objectReference: {fileID: 0}
    - target: {fileID: 7356016798659366284, guid: d58e16495e9aaf84d9e60ddfb1104e08,
        type: 3}
      propertyPath: m_LocalEulerAnglesHint.z
      value: 0
      objectReference: {fileID: 0}
    - target: {fileID: 7356016798659366284, guid: d58e16495e9aaf84d9e60ddfb1104e08,
        type: 3}
      propertyPath: m_LocalScale.x
      value: 35.69054
      objectReference: {fileID: 0}
    - target: {fileID: 7356016798659366284, guid: d58e16495e9aaf84d9e60ddfb1104e08,
        type: 3}
      propertyPath: m_LocalScale.y
      value: 25.076565
      objectReference: {fileID: 0}
    - target: {fileID: 7356016798659366290, guid: d58e16495e9aaf84d9e60ddfb1104e08,
        type: 3}
      propertyPath: m_Name
      value: Floor_wall (4)
      objectReference: {fileID: 0}
    m_RemovedComponents: []
  m_SourcePrefab: {fileID: 100100000, guid: d58e16495e9aaf84d9e60ddfb1104e08, type: 3}
--- !u!1001 &1330806759
PrefabInstance:
  m_ObjectHideFlags: 0
  serializedVersion: 2
  m_Modification:
    m_TransformParent: {fileID: 0}
    m_Modifications:
    - target: {fileID: 682786976592239378, guid: 0b5b3070c90879748b7cb72a44d3a838,
        type: 3}
      propertyPath: m_LocalPosition.x
      value: 90.9097
      objectReference: {fileID: 0}
    - target: {fileID: 682786976592239378, guid: 0b5b3070c90879748b7cb72a44d3a838,
        type: 3}
      propertyPath: m_LocalPosition.y
      value: -56.880913
      objectReference: {fileID: 0}
    - target: {fileID: 682786976592239378, guid: 0b5b3070c90879748b7cb72a44d3a838,
        type: 3}
      propertyPath: m_LocalPosition.z
      value: 0
      objectReference: {fileID: 0}
    - target: {fileID: 682786976592239378, guid: 0b5b3070c90879748b7cb72a44d3a838,
        type: 3}
      propertyPath: m_LocalRotation.x
      value: 0
      objectReference: {fileID: 0}
    - target: {fileID: 682786976592239378, guid: 0b5b3070c90879748b7cb72a44d3a838,
        type: 3}
      propertyPath: m_LocalRotation.y
      value: 0
      objectReference: {fileID: 0}
    - target: {fileID: 682786976592239378, guid: 0b5b3070c90879748b7cb72a44d3a838,
        type: 3}
      propertyPath: m_LocalRotation.z
      value: -1
      objectReference: {fileID: 0}
    - target: {fileID: 682786976592239378, guid: 0b5b3070c90879748b7cb72a44d3a838,
        type: 3}
      propertyPath: m_LocalRotation.w
      value: 0
      objectReference: {fileID: 0}
    - target: {fileID: 682786976592239378, guid: 0b5b3070c90879748b7cb72a44d3a838,
        type: 3}
      propertyPath: m_RootOrder
      value: 7
      objectReference: {fileID: 0}
    - target: {fileID: 682786976592239378, guid: 0b5b3070c90879748b7cb72a44d3a838,
        type: 3}
      propertyPath: m_LocalEulerAnglesHint.x
      value: 0
      objectReference: {fileID: 0}
    - target: {fileID: 682786976592239378, guid: 0b5b3070c90879748b7cb72a44d3a838,
        type: 3}
      propertyPath: m_LocalEulerAnglesHint.y
      value: 0
      objectReference: {fileID: 0}
    - target: {fileID: 682786976592239378, guid: 0b5b3070c90879748b7cb72a44d3a838,
        type: 3}
      propertyPath: m_LocalEulerAnglesHint.z
      value: -180
      objectReference: {fileID: 0}
    - target: {fileID: 682786976592239378, guid: 0b5b3070c90879748b7cb72a44d3a838,
        type: 3}
      propertyPath: m_LocalScale.x
      value: 2.7316213
      objectReference: {fileID: 0}
    - target: {fileID: 682786976592239378, guid: 0b5b3070c90879748b7cb72a44d3a838,
        type: 3}
      propertyPath: m_LocalScale.y
      value: 3.1477404
      objectReference: {fileID: 0}
    - target: {fileID: 682786976592239378, guid: 0b5b3070c90879748b7cb72a44d3a838,
        type: 3}
      propertyPath: m_LocalScale.z
      value: 1.6779
      objectReference: {fileID: 0}
    - target: {fileID: 682786976592239471, guid: 0b5b3070c90879748b7cb72a44d3a838,
        type: 3}
      propertyPath: m_Name
      value: Simple Trap (8)
      objectReference: {fileID: 0}
    m_RemovedComponents: []
  m_SourcePrefab: {fileID: 100100000, guid: 0b5b3070c90879748b7cb72a44d3a838, type: 3}
--- !u!1001 &1417415162
PrefabInstance:
  m_ObjectHideFlags: 0
  serializedVersion: 2
  m_Modification:
    m_TransformParent: {fileID: 0}
    m_Modifications:
    - target: {fileID: 7356016798659366284, guid: d58e16495e9aaf84d9e60ddfb1104e08,
        type: 3}
      propertyPath: m_LocalPosition.x
      value: 105.1324
      objectReference: {fileID: 0}
    - target: {fileID: 7356016798659366284, guid: d58e16495e9aaf84d9e60ddfb1104e08,
        type: 3}
      propertyPath: m_LocalPosition.y
      value: -3.2
      objectReference: {fileID: 0}
    - target: {fileID: 7356016798659366284, guid: d58e16495e9aaf84d9e60ddfb1104e08,
        type: 3}
      propertyPath: m_LocalPosition.z
      value: 0
      objectReference: {fileID: 0}
    - target: {fileID: 7356016798659366284, guid: d58e16495e9aaf84d9e60ddfb1104e08,
        type: 3}
      propertyPath: m_LocalRotation.x
      value: 0
      objectReference: {fileID: 0}
    - target: {fileID: 7356016798659366284, guid: d58e16495e9aaf84d9e60ddfb1104e08,
        type: 3}
      propertyPath: m_LocalRotation.y
      value: 0
      objectReference: {fileID: 0}
    - target: {fileID: 7356016798659366284, guid: d58e16495e9aaf84d9e60ddfb1104e08,
        type: 3}
      propertyPath: m_LocalRotation.z
      value: 0
      objectReference: {fileID: 0}
    - target: {fileID: 7356016798659366284, guid: d58e16495e9aaf84d9e60ddfb1104e08,
        type: 3}
      propertyPath: m_LocalRotation.w
      value: 1
      objectReference: {fileID: 0}
    - target: {fileID: 7356016798659366284, guid: d58e16495e9aaf84d9e60ddfb1104e08,
        type: 3}
      propertyPath: m_RootOrder
      value: 5
      objectReference: {fileID: 0}
    - target: {fileID: 7356016798659366284, guid: d58e16495e9aaf84d9e60ddfb1104e08,
        type: 3}
      propertyPath: m_LocalEulerAnglesHint.x
      value: 0
      objectReference: {fileID: 0}
    - target: {fileID: 7356016798659366284, guid: d58e16495e9aaf84d9e60ddfb1104e08,
        type: 3}
      propertyPath: m_LocalEulerAnglesHint.y
      value: 0
      objectReference: {fileID: 0}
    - target: {fileID: 7356016798659366284, guid: d58e16495e9aaf84d9e60ddfb1104e08,
        type: 3}
      propertyPath: m_LocalEulerAnglesHint.z
      value: 0
      objectReference: {fileID: 0}
    - target: {fileID: 7356016798659366284, guid: d58e16495e9aaf84d9e60ddfb1104e08,
        type: 3}
      propertyPath: m_LocalScale.x
      value: 141.21034
      objectReference: {fileID: 0}
    - target: {fileID: 7356016798659366284, guid: d58e16495e9aaf84d9e60ddfb1104e08,
        type: 3}
      propertyPath: m_LocalScale.y
      value: 29.303637
      objectReference: {fileID: 0}
    - target: {fileID: 7356016798659366290, guid: d58e16495e9aaf84d9e60ddfb1104e08,
        type: 3}
      propertyPath: m_Name
      value: Floor_wall (6)
      objectReference: {fileID: 0}
    m_RemovedComponents: []
  m_SourcePrefab: {fileID: 100100000, guid: d58e16495e9aaf84d9e60ddfb1104e08, type: 3}
--- !u!1001 &1455074298
PrefabInstance:
  m_ObjectHideFlags: 0
  serializedVersion: 2
  m_Modification:
    m_TransformParent: {fileID: 0}
    m_Modifications:
    - target: {fileID: 7356016798659366284, guid: d58e16495e9aaf84d9e60ddfb1104e08,
        type: 3}
      propertyPath: m_LocalPosition.x
      value: 1.49
      objectReference: {fileID: 0}
    - target: {fileID: 7356016798659366284, guid: d58e16495e9aaf84d9e60ddfb1104e08,
        type: 3}
      propertyPath: m_LocalPosition.y
      value: -41.14
      objectReference: {fileID: 0}
    - target: {fileID: 7356016798659366284, guid: d58e16495e9aaf84d9e60ddfb1104e08,
        type: 3}
      propertyPath: m_LocalPosition.z
      value: 0
      objectReference: {fileID: 0}
    - target: {fileID: 7356016798659366284, guid: d58e16495e9aaf84d9e60ddfb1104e08,
        type: 3}
      propertyPath: m_LocalRotation.x
      value: 0
      objectReference: {fileID: 0}
    - target: {fileID: 7356016798659366284, guid: d58e16495e9aaf84d9e60ddfb1104e08,
        type: 3}
      propertyPath: m_LocalRotation.y
      value: 0
      objectReference: {fileID: 0}
    - target: {fileID: 7356016798659366284, guid: d58e16495e9aaf84d9e60ddfb1104e08,
        type: 3}
      propertyPath: m_LocalRotation.z
      value: 0
      objectReference: {fileID: 0}
    - target: {fileID: 7356016798659366284, guid: d58e16495e9aaf84d9e60ddfb1104e08,
        type: 3}
      propertyPath: m_LocalRotation.w
      value: 1
      objectReference: {fileID: 0}
    - target: {fileID: 7356016798659366284, guid: d58e16495e9aaf84d9e60ddfb1104e08,
        type: 3}
      propertyPath: m_RootOrder
      value: 15
      objectReference: {fileID: 0}
    - target: {fileID: 7356016798659366284, guid: d58e16495e9aaf84d9e60ddfb1104e08,
        type: 3}
      propertyPath: m_LocalEulerAnglesHint.x
      value: 0
      objectReference: {fileID: 0}
    - target: {fileID: 7356016798659366284, guid: d58e16495e9aaf84d9e60ddfb1104e08,
        type: 3}
      propertyPath: m_LocalEulerAnglesHint.y
      value: 0
      objectReference: {fileID: 0}
    - target: {fileID: 7356016798659366284, guid: d58e16495e9aaf84d9e60ddfb1104e08,
        type: 3}
      propertyPath: m_LocalEulerAnglesHint.z
      value: 0
      objectReference: {fileID: 0}
    - target: {fileID: 7356016798659366284, guid: d58e16495e9aaf84d9e60ddfb1104e08,
        type: 3}
      propertyPath: m_LocalScale.x
      value: 18.812975
      objectReference: {fileID: 0}
    - target: {fileID: 7356016798659366284, guid: d58e16495e9aaf84d9e60ddfb1104e08,
        type: 3}
      propertyPath: m_LocalScale.y
      value: 46.546356
      objectReference: {fileID: 0}
    - target: {fileID: 7356016798659366290, guid: d58e16495e9aaf84d9e60ddfb1104e08,
        type: 3}
      propertyPath: m_Name
      value: Floor_wall
      objectReference: {fileID: 0}
    m_RemovedComponents: []
  m_SourcePrefab: {fileID: 100100000, guid: d58e16495e9aaf84d9e60ddfb1104e08, type: 3}
--- !u!1001 &1654373999
PrefabInstance:
  m_ObjectHideFlags: 0
  serializedVersion: 2
  m_Modification:
    m_TransformParent: {fileID: 0}
    m_Modifications:
    - target: {fileID: 682786976592239378, guid: 0b5b3070c90879748b7cb72a44d3a838,
        type: 3}
      propertyPath: m_LocalPosition.x
      value: 80.55361
      objectReference: {fileID: 0}
    - target: {fileID: 682786976592239378, guid: 0b5b3070c90879748b7cb72a44d3a838,
        type: 3}
      propertyPath: m_LocalPosition.y
      value: -48.6076
      objectReference: {fileID: 0}
    - target: {fileID: 682786976592239378, guid: 0b5b3070c90879748b7cb72a44d3a838,
        type: 3}
      propertyPath: m_LocalPosition.z
      value: 0
      objectReference: {fileID: 0}
    - target: {fileID: 682786976592239378, guid: 0b5b3070c90879748b7cb72a44d3a838,
        type: 3}
      propertyPath: m_LocalRotation.x
      value: 0
      objectReference: {fileID: 0}
    - target: {fileID: 682786976592239378, guid: 0b5b3070c90879748b7cb72a44d3a838,
        type: 3}
      propertyPath: m_LocalRotation.y
      value: 0
      objectReference: {fileID: 0}
    - target: {fileID: 682786976592239378, guid: 0b5b3070c90879748b7cb72a44d3a838,
        type: 3}
      propertyPath: m_LocalRotation.z
      value: -1
      objectReference: {fileID: 0}
    - target: {fileID: 682786976592239378, guid: 0b5b3070c90879748b7cb72a44d3a838,
        type: 3}
      propertyPath: m_LocalRotation.w
      value: 0
      objectReference: {fileID: 0}
    - target: {fileID: 682786976592239378, guid: 0b5b3070c90879748b7cb72a44d3a838,
        type: 3}
      propertyPath: m_RootOrder
      value: 8
      objectReference: {fileID: 0}
    - target: {fileID: 682786976592239378, guid: 0b5b3070c90879748b7cb72a44d3a838,
        type: 3}
      propertyPath: m_LocalEulerAnglesHint.x
      value: 0
      objectReference: {fileID: 0}
    - target: {fileID: 682786976592239378, guid: 0b5b3070c90879748b7cb72a44d3a838,
        type: 3}
      propertyPath: m_LocalEulerAnglesHint.y
      value: 0
      objectReference: {fileID: 0}
    - target: {fileID: 682786976592239378, guid: 0b5b3070c90879748b7cb72a44d3a838,
        type: 3}
      propertyPath: m_LocalEulerAnglesHint.z
      value: -180
      objectReference: {fileID: 0}
    - target: {fileID: 682786976592239378, guid: 0b5b3070c90879748b7cb72a44d3a838,
        type: 3}
      propertyPath: m_LocalScale.x
      value: 2.7316213
      objectReference: {fileID: 0}
    - target: {fileID: 682786976592239378, guid: 0b5b3070c90879748b7cb72a44d3a838,
        type: 3}
      propertyPath: m_LocalScale.y
      value: 3.1477404
      objectReference: {fileID: 0}
    - target: {fileID: 682786976592239378, guid: 0b5b3070c90879748b7cb72a44d3a838,
        type: 3}
      propertyPath: m_LocalScale.z
      value: 1.6779
      objectReference: {fileID: 0}
    - target: {fileID: 682786976592239471, guid: 0b5b3070c90879748b7cb72a44d3a838,
        type: 3}
      propertyPath: m_Name
      value: Simple Trap (7)
      objectReference: {fileID: 0}
    m_RemovedComponents: []
  m_SourcePrefab: {fileID: 100100000, guid: 0b5b3070c90879748b7cb72a44d3a838, type: 3}
--- !u!1001 &1676567173
PrefabInstance:
  m_ObjectHideFlags: 0
  serializedVersion: 2
  m_Modification:
    m_TransformParent: {fileID: 0}
    m_Modifications:
    - target: {fileID: 682786976592239378, guid: 0b5b3070c90879748b7cb72a44d3a838,
        type: 3}
      propertyPath: m_LocalPosition.x
      value: 101.21
      objectReference: {fileID: 0}
    - target: {fileID: 682786976592239378, guid: 0b5b3070c90879748b7cb72a44d3a838,
        type: 3}
      propertyPath: m_LocalPosition.y
      value: -48.153896
      objectReference: {fileID: 0}
    - target: {fileID: 682786976592239378, guid: 0b5b3070c90879748b7cb72a44d3a838,
        type: 3}
      propertyPath: m_LocalPosition.z
      value: 0
      objectReference: {fileID: 0}
    - target: {fileID: 682786976592239378, guid: 0b5b3070c90879748b7cb72a44d3a838,
        type: 3}
      propertyPath: m_LocalRotation.x
      value: 0
      objectReference: {fileID: 0}
    - target: {fileID: 682786976592239378, guid: 0b5b3070c90879748b7cb72a44d3a838,
        type: 3}
      propertyPath: m_LocalRotation.y
      value: 0
      objectReference: {fileID: 0}
    - target: {fileID: 682786976592239378, guid: 0b5b3070c90879748b7cb72a44d3a838,
        type: 3}
      propertyPath: m_LocalRotation.z
      value: -1
      objectReference: {fileID: 0}
    - target: {fileID: 682786976592239378, guid: 0b5b3070c90879748b7cb72a44d3a838,
        type: 3}
      propertyPath: m_LocalRotation.w
      value: 0
      objectReference: {fileID: 0}
    - target: {fileID: 682786976592239378, guid: 0b5b3070c90879748b7cb72a44d3a838,
        type: 3}
      propertyPath: m_RootOrder
      value: 6
      objectReference: {fileID: 0}
    - target: {fileID: 682786976592239378, guid: 0b5b3070c90879748b7cb72a44d3a838,
        type: 3}
      propertyPath: m_LocalEulerAnglesHint.x
      value: 0
      objectReference: {fileID: 0}
    - target: {fileID: 682786976592239378, guid: 0b5b3070c90879748b7cb72a44d3a838,
        type: 3}
      propertyPath: m_LocalEulerAnglesHint.y
      value: 0
      objectReference: {fileID: 0}
    - target: {fileID: 682786976592239378, guid: 0b5b3070c90879748b7cb72a44d3a838,
        type: 3}
      propertyPath: m_LocalEulerAnglesHint.z
      value: -180
      objectReference: {fileID: 0}
    - target: {fileID: 682786976592239378, guid: 0b5b3070c90879748b7cb72a44d3a838,
        type: 3}
      propertyPath: m_LocalScale.x
      value: 2.7316213
      objectReference: {fileID: 0}
    - target: {fileID: 682786976592239378, guid: 0b5b3070c90879748b7cb72a44d3a838,
        type: 3}
      propertyPath: m_LocalScale.y
      value: 3.1477404
      objectReference: {fileID: 0}
    - target: {fileID: 682786976592239378, guid: 0b5b3070c90879748b7cb72a44d3a838,
        type: 3}
      propertyPath: m_LocalScale.z
      value: 1.6779
      objectReference: {fileID: 0}
    - target: {fileID: 682786976592239471, guid: 0b5b3070c90879748b7cb72a44d3a838,
        type: 3}
      propertyPath: m_Name
      value: Simple Trap (6)
      objectReference: {fileID: 0}
    m_RemovedComponents: []
  m_SourcePrefab: {fileID: 100100000, guid: 0b5b3070c90879748b7cb72a44d3a838, type: 3}
--- !u!1001 &1830456122
PrefabInstance:
  m_ObjectHideFlags: 0
  serializedVersion: 2
  m_Modification:
    m_TransformParent: {fileID: 0}
    m_Modifications:
    - target: {fileID: 682786976592239378, guid: 0b5b3070c90879748b7cb72a44d3a838,
        type: 3}
      propertyPath: m_LocalPosition.x
      value: 23.08
      objectReference: {fileID: 0}
    - target: {fileID: 682786976592239378, guid: 0b5b3070c90879748b7cb72a44d3a838,
        type: 3}
      propertyPath: m_LocalPosition.y
      value: -60.77
      objectReference: {fileID: 0}
    - target: {fileID: 682786976592239378, guid: 0b5b3070c90879748b7cb72a44d3a838,
        type: 3}
      propertyPath: m_LocalPosition.z
      value: 0
      objectReference: {fileID: 0}
    - target: {fileID: 682786976592239378, guid: 0b5b3070c90879748b7cb72a44d3a838,
        type: 3}
      propertyPath: m_LocalRotation.x
      value: 0
      objectReference: {fileID: 0}
    - target: {fileID: 682786976592239378, guid: 0b5b3070c90879748b7cb72a44d3a838,
        type: 3}
      propertyPath: m_LocalRotation.y
      value: 0
      objectReference: {fileID: 0}
    - target: {fileID: 682786976592239378, guid: 0b5b3070c90879748b7cb72a44d3a838,
        type: 3}
      propertyPath: m_LocalRotation.z
      value: 0
      objectReference: {fileID: 0}
    - target: {fileID: 682786976592239378, guid: 0b5b3070c90879748b7cb72a44d3a838,
        type: 3}
      propertyPath: m_LocalRotation.w
      value: 1
      objectReference: {fileID: 0}
    - target: {fileID: 682786976592239378, guid: 0b5b3070c90879748b7cb72a44d3a838,
        type: 3}
      propertyPath: m_RootOrder
      value: 12
      objectReference: {fileID: 0}
    - target: {fileID: 682786976592239378, guid: 0b5b3070c90879748b7cb72a44d3a838,
        type: 3}
      propertyPath: m_LocalEulerAnglesHint.x
      value: 0
      objectReference: {fileID: 0}
    - target: {fileID: 682786976592239378, guid: 0b5b3070c90879748b7cb72a44d3a838,
        type: 3}
      propertyPath: m_LocalEulerAnglesHint.y
      value: 0
      objectReference: {fileID: 0}
    - target: {fileID: 682786976592239378, guid: 0b5b3070c90879748b7cb72a44d3a838,
        type: 3}
      propertyPath: m_LocalEulerAnglesHint.z
      value: 0
      objectReference: {fileID: 0}
    - target: {fileID: 682786976592239378, guid: 0b5b3070c90879748b7cb72a44d3a838,
        type: 3}
      propertyPath: m_LocalScale.x
      value: 4.3228283
      objectReference: {fileID: 0}
    - target: {fileID: 682786976592239378, guid: 0b5b3070c90879748b7cb72a44d3a838,
        type: 3}
      propertyPath: m_LocalScale.y
      value: 4.981343
      objectReference: {fileID: 0}
    - target: {fileID: 682786976592239378, guid: 0b5b3070c90879748b7cb72a44d3a838,
        type: 3}
      propertyPath: m_LocalScale.z
      value: 2.6553
      objectReference: {fileID: 0}
    - target: {fileID: 682786976592239471, guid: 0b5b3070c90879748b7cb72a44d3a838,
        type: 3}
      propertyPath: m_Name
      value: Simple Trap (1)
      objectReference: {fileID: 0}
    m_RemovedComponents: []
  m_SourcePrefab: {fileID: 100100000, guid: 0b5b3070c90879748b7cb72a44d3a838, type: 3}
--- !u!1001 &1865877443
PrefabInstance:
  m_ObjectHideFlags: 0
  serializedVersion: 2
  m_Modification:
    m_TransformParent: {fileID: 0}
    m_Modifications:
    - target: {fileID: 7356016798659366284, guid: d58e16495e9aaf84d9e60ddfb1104e08,
        type: 3}
      propertyPath: m_LocalPosition.x
      value: 66.72
      objectReference: {fileID: 0}
    - target: {fileID: 7356016798659366284, guid: d58e16495e9aaf84d9e60ddfb1104e08,
        type: 3}
      propertyPath: m_LocalPosition.y
      value: -94.04
      objectReference: {fileID: 0}
    - target: {fileID: 7356016798659366284, guid: d58e16495e9aaf84d9e60ddfb1104e08,
        type: 3}
      propertyPath: m_LocalPosition.z
      value: 0
      objectReference: {fileID: 0}
    - target: {fileID: 7356016798659366284, guid: d58e16495e9aaf84d9e60ddfb1104e08,
        type: 3}
      propertyPath: m_LocalRotation.x
      value: 0
      objectReference: {fileID: 0}
    - target: {fileID: 7356016798659366284, guid: d58e16495e9aaf84d9e60ddfb1104e08,
        type: 3}
      propertyPath: m_LocalRotation.y
      value: 0
      objectReference: {fileID: 0}
    - target: {fileID: 7356016798659366284, guid: d58e16495e9aaf84d9e60ddfb1104e08,
        type: 3}
      propertyPath: m_LocalRotation.z
      value: 0
      objectReference: {fileID: 0}
    - target: {fileID: 7356016798659366284, guid: d58e16495e9aaf84d9e60ddfb1104e08,
        type: 3}
      propertyPath: m_LocalRotation.w
      value: 1
      objectReference: {fileID: 0}
    - target: {fileID: 7356016798659366284, guid: d58e16495e9aaf84d9e60ddfb1104e08,
        type: 3}
      propertyPath: m_RootOrder
      value: 1
      objectReference: {fileID: 0}
    - target: {fileID: 7356016798659366284, guid: d58e16495e9aaf84d9e60ddfb1104e08,
        type: 3}
      propertyPath: m_LocalEulerAnglesHint.x
      value: 0
      objectReference: {fileID: 0}
    - target: {fileID: 7356016798659366284, guid: d58e16495e9aaf84d9e60ddfb1104e08,
        type: 3}
      propertyPath: m_LocalEulerAnglesHint.y
      value: 0
      objectReference: {fileID: 0}
    - target: {fileID: 7356016798659366284, guid: d58e16495e9aaf84d9e60ddfb1104e08,
        type: 3}
      propertyPath: m_LocalEulerAnglesHint.z
      value: 0
      objectReference: {fileID: 0}
    - target: {fileID: 7356016798659366284, guid: d58e16495e9aaf84d9e60ddfb1104e08,
        type: 3}
      propertyPath: m_LocalScale.x
      value: 219.78224
      objectReference: {fileID: 0}
    - target: {fileID: 7356016798659366284, guid: d58e16495e9aaf84d9e60ddfb1104e08,
        type: 3}
      propertyPath: m_LocalScale.y
      value: 59.792294
      objectReference: {fileID: 0}
    - target: {fileID: 7356016798659366290, guid: d58e16495e9aaf84d9e60ddfb1104e08,
        type: 3}
      propertyPath: m_Name
      value: Floor_wall (9)
      objectReference: {fileID: 0}
    m_RemovedComponents: []
  m_SourcePrefab: {fileID: 100100000, guid: d58e16495e9aaf84d9e60ddfb1104e08, type: 3}
--- !u!1001 &2031438047
PrefabInstance:
  m_ObjectHideFlags: 0
  serializedVersion: 2
  m_Modification:
    m_TransformParent: {fileID: 0}
    m_Modifications:
    - target: {fileID: 7104213370431342816, guid: 034ea8aeeb3c3a848bcb82e22634afde,
        type: 3}
      propertyPath: m_Name
      value: Ambient
      objectReference: {fileID: 0}
    - target: {fileID: 7104213370431342818, guid: 034ea8aeeb3c3a848bcb82e22634afde,
        type: 3}
      propertyPath: m_LocalPosition.x
      value: 64.40524
      objectReference: {fileID: 0}
    - target: {fileID: 7104213370431342818, guid: 034ea8aeeb3c3a848bcb82e22634afde,
        type: 3}
      propertyPath: m_LocalPosition.y
      value: -40.02713
      objectReference: {fileID: 0}
    - target: {fileID: 7104213370431342818, guid: 034ea8aeeb3c3a848bcb82e22634afde,
        type: 3}
      propertyPath: m_LocalPosition.z
      value: -484.42188
      objectReference: {fileID: 0}
    - target: {fileID: 7104213370431342818, guid: 034ea8aeeb3c3a848bcb82e22634afde,
        type: 3}
      propertyPath: m_LocalRotation.x
      value: 0
      objectReference: {fileID: 0}
    - target: {fileID: 7104213370431342818, guid: 034ea8aeeb3c3a848bcb82e22634afde,
        type: 3}
      propertyPath: m_LocalRotation.y
      value: 0
      objectReference: {fileID: 0}
    - target: {fileID: 7104213370431342818, guid: 034ea8aeeb3c3a848bcb82e22634afde,
        type: 3}
      propertyPath: m_LocalRotation.z
      value: 0
      objectReference: {fileID: 0}
    - target: {fileID: 7104213370431342818, guid: 034ea8aeeb3c3a848bcb82e22634afde,
        type: 3}
      propertyPath: m_LocalRotation.w
      value: 1
      objectReference: {fileID: 0}
    - target: {fileID: 7104213370431342818, guid: 034ea8aeeb3c3a848bcb82e22634afde,
        type: 3}
      propertyPath: m_RootOrder
      value: 1
      objectReference: {fileID: 0}
    - target: {fileID: 7104213370431342818, guid: 034ea8aeeb3c3a848bcb82e22634afde,
        type: 3}
      propertyPath: m_LocalEulerAnglesHint.x
      value: 0
      objectReference: {fileID: 0}
    - target: {fileID: 7104213370431342818, guid: 034ea8aeeb3c3a848bcb82e22634afde,
        type: 3}
      propertyPath: m_LocalEulerAnglesHint.y
      value: 0
      objectReference: {fileID: 0}
    - target: {fileID: 7104213370431342818, guid: 034ea8aeeb3c3a848bcb82e22634afde,
        type: 3}
      propertyPath: m_LocalEulerAnglesHint.z
      value: 0
      objectReference: {fileID: 0}
    m_RemovedComponents: []
  m_SourcePrefab: {fileID: 100100000, guid: 034ea8aeeb3c3a848bcb82e22634afde, type: 3}
--- !u!1001 &2043853524
PrefabInstance:
  m_ObjectHideFlags: 0
  serializedVersion: 2
  m_Modification:
    m_TransformParent: {fileID: 0}
    m_Modifications:
    - target: {fileID: 682786976592239378, guid: 0b5b3070c90879748b7cb72a44d3a838,
        type: 3}
      propertyPath: m_LocalPosition.x
      value: 59.82
      objectReference: {fileID: 0}
    - target: {fileID: 682786976592239378, guid: 0b5b3070c90879748b7cb72a44d3a838,
        type: 3}
      propertyPath: m_LocalPosition.y
      value: -48.26
      objectReference: {fileID: 0}
    - target: {fileID: 682786976592239378, guid: 0b5b3070c90879748b7cb72a44d3a838,
        type: 3}
      propertyPath: m_LocalPosition.z
      value: 0
      objectReference: {fileID: 0}
    - target: {fileID: 682786976592239378, guid: 0b5b3070c90879748b7cb72a44d3a838,
        type: 3}
      propertyPath: m_LocalRotation.x
      value: 0
      objectReference: {fileID: 0}
    - target: {fileID: 682786976592239378, guid: 0b5b3070c90879748b7cb72a44d3a838,
        type: 3}
      propertyPath: m_LocalRotation.y
      value: 0
      objectReference: {fileID: 0}
    - target: {fileID: 682786976592239378, guid: 0b5b3070c90879748b7cb72a44d3a838,
        type: 3}
      propertyPath: m_LocalRotation.z
      value: 0
      objectReference: {fileID: 0}
    - target: {fileID: 682786976592239378, guid: 0b5b3070c90879748b7cb72a44d3a838,
        type: 3}
      propertyPath: m_LocalRotation.w
      value: 1
      objectReference: {fileID: 0}
    - target: {fileID: 682786976592239378, guid: 0b5b3070c90879748b7cb72a44d3a838,
        type: 3}
      propertyPath: m_RootOrder
      value: 10
      objectReference: {fileID: 0}
    - target: {fileID: 682786976592239378, guid: 0b5b3070c90879748b7cb72a44d3a838,
        type: 3}
      propertyPath: m_LocalEulerAnglesHint.x
      value: 0
      objectReference: {fileID: 0}
    - target: {fileID: 682786976592239378, guid: 0b5b3070c90879748b7cb72a44d3a838,
        type: 3}
      propertyPath: m_LocalEulerAnglesHint.y
      value: 0
      objectReference: {fileID: 0}
    - target: {fileID: 682786976592239378, guid: 0b5b3070c90879748b7cb72a44d3a838,
        type: 3}
      propertyPath: m_LocalEulerAnglesHint.z
      value: 0
      objectReference: {fileID: 0}
    - target: {fileID: 682786976592239378, guid: 0b5b3070c90879748b7cb72a44d3a838,
        type: 3}
      propertyPath: m_LocalScale.x
      value: 2.7316213
      objectReference: {fileID: 0}
    - target: {fileID: 682786976592239378, guid: 0b5b3070c90879748b7cb72a44d3a838,
        type: 3}
      propertyPath: m_LocalScale.y
      value: 3.1477404
      objectReference: {fileID: 0}
    - target: {fileID: 682786976592239378, guid: 0b5b3070c90879748b7cb72a44d3a838,
        type: 3}
      propertyPath: m_LocalScale.z
      value: 1.6779
      objectReference: {fileID: 0}
    - target: {fileID: 682786976592239471, guid: 0b5b3070c90879748b7cb72a44d3a838,
        type: 3}
      propertyPath: m_Name
      value: Simple Trap (4)
      objectReference: {fileID: 0}
    m_RemovedComponents: []
  m_SourcePrefab: {fileID: 100100000, guid: 0b5b3070c90879748b7cb72a44d3a838, type: 3}
--- !u!1001 &2058837238
PrefabInstance:
  m_ObjectHideFlags: 0
  serializedVersion: 2
  m_Modification:
    m_TransformParent: {fileID: 0}
    m_Modifications:
    - target: {fileID: 7356016798659366284, guid: d58e16495e9aaf84d9e60ddfb1104e08,
        type: 3}
      propertyPath: m_LocalPosition.x
      value: 122.068
      objectReference: {fileID: 0}
    - target: {fileID: 7356016798659366284, guid: d58e16495e9aaf84d9e60ddfb1104e08,
        type: 3}
      propertyPath: m_LocalPosition.y
      value: -61.213
      objectReference: {fileID: 0}
    - target: {fileID: 7356016798659366284, guid: d58e16495e9aaf84d9e60ddfb1104e08,
        type: 3}
      propertyPath: m_LocalPosition.z
      value: 0
      objectReference: {fileID: 0}
    - target: {fileID: 7356016798659366284, guid: d58e16495e9aaf84d9e60ddfb1104e08,
        type: 3}
      propertyPath: m_LocalRotation.x
      value: 0
      objectReference: {fileID: 0}
    - target: {fileID: 7356016798659366284, guid: d58e16495e9aaf84d9e60ddfb1104e08,
        type: 3}
      propertyPath: m_LocalRotation.y
      value: 0
      objectReference: {fileID: 0}
    - target: {fileID: 7356016798659366284, guid: d58e16495e9aaf84d9e60ddfb1104e08,
        type: 3}
      propertyPath: m_LocalRotation.z
      value: 0
      objectReference: {fileID: 0}
    - target: {fileID: 7356016798659366284, guid: d58e16495e9aaf84d9e60ddfb1104e08,
        type: 3}
      propertyPath: m_LocalRotation.w
      value: 1
      objectReference: {fileID: 0}
    - target: {fileID: 7356016798659366284, guid: d58e16495e9aaf84d9e60ddfb1104e08,
        type: 3}
      propertyPath: m_RootOrder
      value: 19
      objectReference: {fileID: 0}
    - target: {fileID: 7356016798659366284, guid: d58e16495e9aaf84d9e60ddfb1104e08,
        type: 3}
      propertyPath: m_LocalEulerAnglesHint.x
      value: 0
      objectReference: {fileID: 0}
    - target: {fileID: 7356016798659366284, guid: d58e16495e9aaf84d9e60ddfb1104e08,
        type: 3}
      propertyPath: m_LocalEulerAnglesHint.y
      value: 0
      objectReference: {fileID: 0}
    - target: {fileID: 7356016798659366284, guid: d58e16495e9aaf84d9e60ddfb1104e08,
        type: 3}
      propertyPath: m_LocalEulerAnglesHint.z
      value: 0
      objectReference: {fileID: 0}
    - target: {fileID: 7356016798659366284, guid: d58e16495e9aaf84d9e60ddfb1104e08,
        type: 3}
      propertyPath: m_LocalScale.x
      value: 35.69054
      objectReference: {fileID: 0}
    - target: {fileID: 7356016798659366284, guid: d58e16495e9aaf84d9e60ddfb1104e08,
        type: 3}
      propertyPath: m_LocalScale.y
      value: 6.7031717
      objectReference: {fileID: 0}
    - target: {fileID: 7356016798659366290, guid: d58e16495e9aaf84d9e60ddfb1104e08,
        type: 3}
      propertyPath: m_Name
      value: Floor_wall (3)
      objectReference: {fileID: 0}
    m_RemovedComponents: []
  m_SourcePrefab: {fileID: 100100000, guid: d58e16495e9aaf84d9e60ddfb1104e08, type: 3}
--- !u!1001 &2146544486
PrefabInstance:
  m_ObjectHideFlags: 0
  serializedVersion: 2
  m_Modification:
    m_TransformParent: {fileID: 0}
    m_Modifications:
    - target: {fileID: 7356016798659366284, guid: d58e16495e9aaf84d9e60ddfb1104e08,
        type: 3}
      propertyPath: m_LocalPosition.x
      value: 69.436
      objectReference: {fileID: 0}
    - target: {fileID: 7356016798659366284, guid: d58e16495e9aaf84d9e60ddfb1104e08,
        type: 3}
      propertyPath: m_LocalPosition.y
      value: -61.213
      objectReference: {fileID: 0}
    - target: {fileID: 7356016798659366284, guid: d58e16495e9aaf84d9e60ddfb1104e08,
        type: 3}
      propertyPath: m_LocalPosition.z
      value: 0
      objectReference: {fileID: 0}
    - target: {fileID: 7356016798659366284, guid: d58e16495e9aaf84d9e60ddfb1104e08,
        type: 3}
      propertyPath: m_LocalRotation.x
      value: 0
      objectReference: {fileID: 0}
    - target: {fileID: 7356016798659366284, guid: d58e16495e9aaf84d9e60ddfb1104e08,
        type: 3}
      propertyPath: m_LocalRotation.y
      value: 0
      objectReference: {fileID: 0}
    - target: {fileID: 7356016798659366284, guid: d58e16495e9aaf84d9e60ddfb1104e08,
        type: 3}
      propertyPath: m_LocalRotation.z
      value: 0
      objectReference: {fileID: 0}
    - target: {fileID: 7356016798659366284, guid: d58e16495e9aaf84d9e60ddfb1104e08,
        type: 3}
      propertyPath: m_LocalRotation.w
      value: 1
      objectReference: {fileID: 0}
    - target: {fileID: 7356016798659366284, guid: d58e16495e9aaf84d9e60ddfb1104e08,
        type: 3}
      propertyPath: m_RootOrder
      value: 17
      objectReference: {fileID: 0}
    - target: {fileID: 7356016798659366284, guid: d58e16495e9aaf84d9e60ddfb1104e08,
        type: 3}
      propertyPath: m_LocalEulerAnglesHint.x
      value: 0
      objectReference: {fileID: 0}
    - target: {fileID: 7356016798659366284, guid: d58e16495e9aaf84d9e60ddfb1104e08,
        type: 3}
      propertyPath: m_LocalEulerAnglesHint.y
      value: 0
      objectReference: {fileID: 0}
    - target: {fileID: 7356016798659366284, guid: d58e16495e9aaf84d9e60ddfb1104e08,
        type: 3}
      propertyPath: m_LocalEulerAnglesHint.z
      value: 0
      objectReference: {fileID: 0}
    - target: {fileID: 7356016798659366284, guid: d58e16495e9aaf84d9e60ddfb1104e08,
        type: 3}
      propertyPath: m_LocalScale.x
      value: 69.77214
      objectReference: {fileID: 0}
    - target: {fileID: 7356016798659366284, guid: d58e16495e9aaf84d9e60ddfb1104e08,
        type: 3}
      propertyPath: m_LocalScale.y
      value: 6.7031717
      objectReference: {fileID: 0}
    - target: {fileID: 7356016798659366290, guid: d58e16495e9aaf84d9e60ddfb1104e08,
        type: 3}
      propertyPath: m_Name
      value: Floor_wall (1)
      objectReference: {fileID: 0}
    m_RemovedComponents: []
  m_SourcePrefab: {fileID: 100100000, guid: d58e16495e9aaf84d9e60ddfb1104e08, type: 3}
